{
  "contractName": "ILogger",
  "abi": [
    {
      "constant": false,
      "inputs": [
        {
          "name": "addressToPermission",
          "type": "address"
        }
      ],
      "name": "addNewLoggerPermission",
      "outputs": [],
      "payable": false,
      "stateMutability": "nonpayable",
      "type": "function"
    },
    {
      "constant": false,
      "inputs": [
        {
          "name": "uuid",
          "type": "uint256"
        },
        {
          "name": "amount",
          "type": "uint256"
        }
      ],
      "name": "emitTaskCreated",
      "outputs": [],
      "payable": false,
      "stateMutability": "nonpayable",
      "type": "function"
    },
    {
      "constant": false,
      "inputs": [
        {
          "name": "uuid",
          "type": "uint256"
        },
        {
          "name": "amount",
          "type": "uint256"
        },
        {
          "name": "rewardAddress",
          "type": "address"
        }
      ],
      "name": "emitProjectCreated",
      "outputs": [],
      "payable": false,
      "stateMutability": "nonpayable",
      "type": "function"
    },
    {
      "constant": false,
      "inputs": [
        {
          "name": "token",
          "type": "address"
        }
      ],
      "name": "emitNewSmartToken",
      "outputs": [],
      "payable": false,
      "stateMutability": "nonpayable",
      "type": "function"
    },
    {
      "constant": false,
      "inputs": [
        {
          "name": "amount",
          "type": "uint256"
        }
      ],
      "name": "emitIssuance",
      "outputs": [],
      "payable": false,
      "stateMutability": "nonpayable",
      "type": "function"
    },
    {
      "constant": false,
      "inputs": [
        {
          "name": "amount",
          "type": "uint256"
        }
      ],
      "name": "emitDestruction",
      "outputs": [],
      "payable": false,
      "stateMutability": "nonpayable",
      "type": "function"
    },
    {
      "constant": false,
      "inputs": [
        {
          "name": "from",
          "type": "address"
        },
        {
          "name": "to",
          "type": "address"
        },
        {
          "name": "value",
          "type": "uint256"
        }
      ],
      "name": "emitTransfer",
      "outputs": [],
      "payable": false,
      "stateMutability": "nonpayable",
      "type": "function"
    },
    {
      "constant": false,
      "inputs": [
        {
          "name": "owner",
          "type": "address"
        },
        {
          "name": "spender",
          "type": "address"
        },
        {
          "name": "value",
          "type": "uint256"
        }
      ],
      "name": "emitApproval",
      "outputs": [],
      "payable": false,
      "stateMutability": "nonpayable",
      "type": "function"
    },
    {
      "constant": false,
      "inputs": [
        {
          "name": "messageType",
          "type": "string"
        },
        {
          "name": "message",
          "type": "string"
        }
      ],
      "name": "emitGenericLog",
      "outputs": [],
      "payable": false,
      "stateMutability": "nonpayable",
      "type": "function"
    }
  ],
  "bytecode": "0x",
  "deployedBytecode": "0x",
  "sourceMap": "",
  "deployedSourceMap": "",
  "source": "pragma solidity ^0.4.24;\n\n/*\n    Logger Contract Interface\n*/\n\ncontract ILogger {\n    function addNewLoggerPermission(address addressToPermission) public;\n    function emitTaskCreated(uint uuid, uint amount) public;\n    function emitProjectCreated(uint uuid, uint amount, address rewardAddress) public;\n    function emitNewSmartToken(address token) public;\n    function emitIssuance(uint256 amount) public;\n    function emitDestruction(uint256 amount) public;\n    function emitTransfer(address from, address to, uint256 value) public;\n    function emitApproval(address owner, address spender, uint256 value) public;\n    function emitGenericLog(string messageType, string message) public;\n}",
  "sourcePath": "/Users/nickarellano/htdocs/native-tribe-contracts/contracts/interfaces/ILogger.sol",
  "ast": {
    "absolutePath": "/Users/nickarellano/htdocs/native-tribe-contracts/contracts/interfaces/ILogger.sol",
    "exportedSymbols": {
      "ILogger": [
        2764
      ]
    },
    "id": 2765,
    "nodeType": "SourceUnit",
    "nodes": [
      {
        "id": 2702,
        "literals": [
          "solidity",
          "^",
          "0.4",
          ".24"
        ],
        "nodeType": "PragmaDirective",
        "src": "0:24:14"
      },
      {
        "baseContracts": [],
        "contractDependencies": [],
        "contractKind": "contract",
        "documentation": null,
        "fullyImplemented": false,
        "id": 2764,
        "linearizedBaseContracts": [
          2764
        ],
        "name": "ILogger",
        "nodeType": "ContractDefinition",
        "nodes": [
          {
            "body": null,
            "documentation": null,
            "id": 2707,
            "implemented": false,
            "isConstructor": false,
            "isDeclaredConst": false,
            "modifiers": [],
            "name": "addNewLoggerPermission",
            "nodeType": "FunctionDefinition",
            "parameters": {
              "id": 2705,
              "nodeType": "ParameterList",
              "parameters": [
                {
                  "constant": false,
                  "id": 2704,
                  "name": "addressToPermission",
                  "nodeType": "VariableDeclaration",
                  "scope": 2707,
                  "src": "118:27:14",
                  "stateVariable": false,
                  "storageLocation": "default",
                  "typeDescriptions": {
                    "typeIdentifier": "t_address",
                    "typeString": "address"
                  },
                  "typeName": {
                    "id": 2703,
                    "name": "address",
                    "nodeType": "ElementaryTypeName",
                    "src": "118:7:14",
                    "typeDescriptions": {
                      "typeIdentifier": "t_address",
                      "typeString": "address"
                    }
                  },
                  "value": null,
                  "visibility": "internal"
                }
              ],
              "src": "117:29:14"
            },
            "payable": false,
            "returnParameters": {
              "id": 2706,
              "nodeType": "ParameterList",
              "parameters": [],
              "src": "153:0:14"
            },
            "scope": 2764,
            "src": "86:68:14",
            "stateMutability": "nonpayable",
            "superFunction": null,
            "visibility": "public"
          },
          {
            "body": null,
            "documentation": null,
            "id": 2714,
            "implemented": false,
            "isConstructor": false,
            "isDeclaredConst": false,
            "modifiers": [],
            "name": "emitTaskCreated",
            "nodeType": "FunctionDefinition",
            "parameters": {
              "id": 2712,
              "nodeType": "ParameterList",
              "parameters": [
                {
                  "constant": false,
                  "id": 2709,
                  "name": "uuid",
                  "nodeType": "VariableDeclaration",
                  "scope": 2714,
                  "src": "184:9:14",
                  "stateVariable": false,
                  "storageLocation": "default",
                  "typeDescriptions": {
                    "typeIdentifier": "t_uint256",
                    "typeString": "uint256"
                  },
                  "typeName": {
                    "id": 2708,
                    "name": "uint",
                    "nodeType": "ElementaryTypeName",
                    "src": "184:4:14",
                    "typeDescriptions": {
                      "typeIdentifier": "t_uint256",
                      "typeString": "uint256"
                    }
                  },
                  "value": null,
                  "visibility": "internal"
                },
                {
                  "constant": false,
                  "id": 2711,
                  "name": "amount",
                  "nodeType": "VariableDeclaration",
                  "scope": 2714,
                  "src": "195:11:14",
                  "stateVariable": false,
                  "storageLocation": "default",
                  "typeDescriptions": {
                    "typeIdentifier": "t_uint256",
                    "typeString": "uint256"
                  },
                  "typeName": {
                    "id": 2710,
                    "name": "uint",
                    "nodeType": "ElementaryTypeName",
                    "src": "195:4:14",
                    "typeDescriptions": {
                      "typeIdentifier": "t_uint256",
                      "typeString": "uint256"
                    }
                  },
                  "value": null,
                  "visibility": "internal"
                }
              ],
              "src": "183:24:14"
            },
            "payable": false,
            "returnParameters": {
              "id": 2713,
              "nodeType": "ParameterList",
              "parameters": [],
              "src": "214:0:14"
            },
            "scope": 2764,
            "src": "159:56:14",
            "stateMutability": "nonpayable",
            "superFunction": null,
            "visibility": "public"
          },
          {
            "body": null,
            "documentation": null,
            "id": 2723,
            "implemented": false,
            "isConstructor": false,
            "isDeclaredConst": false,
            "modifiers": [],
            "name": "emitProjectCreated",
            "nodeType": "FunctionDefinition",
            "parameters": {
              "id": 2721,
              "nodeType": "ParameterList",
              "parameters": [
                {
                  "constant": false,
                  "id": 2716,
                  "name": "uuid",
                  "nodeType": "VariableDeclaration",
                  "scope": 2723,
                  "src": "248:9:14",
                  "stateVariable": false,
                  "storageLocation": "default",
                  "typeDescriptions": {
                    "typeIdentifier": "t_uint256",
                    "typeString": "uint256"
                  },
                  "typeName": {
                    "id": 2715,
                    "name": "uint",
                    "nodeType": "ElementaryTypeName",
                    "src": "248:4:14",
                    "typeDescriptions": {
                      "typeIdentifier": "t_uint256",
                      "typeString": "uint256"
                    }
                  },
                  "value": null,
                  "visibility": "internal"
                },
                {
                  "constant": false,
                  "id": 2718,
                  "name": "amount",
                  "nodeType": "VariableDeclaration",
                  "scope": 2723,
                  "src": "259:11:14",
                  "stateVariable": false,
                  "storageLocation": "default",
                  "typeDescriptions": {
                    "typeIdentifier": "t_uint256",
                    "typeString": "uint256"
                  },
                  "typeName": {
                    "id": 2717,
                    "name": "uint",
                    "nodeType": "ElementaryTypeName",
                    "src": "259:4:14",
                    "typeDescriptions": {
                      "typeIdentifier": "t_uint256",
                      "typeString": "uint256"
                    }
                  },
                  "value": null,
                  "visibility": "internal"
                },
                {
                  "constant": false,
                  "id": 2720,
                  "name": "rewardAddress",
                  "nodeType": "VariableDeclaration",
                  "scope": 2723,
                  "src": "272:21:14",
                  "stateVariable": false,
                  "storageLocation": "default",
                  "typeDescriptions": {
                    "typeIdentifier": "t_address",
                    "typeString": "address"
                  },
                  "typeName": {
                    "id": 2719,
                    "name": "address",
                    "nodeType": "ElementaryTypeName",
                    "src": "272:7:14",
                    "typeDescriptions": {
                      "typeIdentifier": "t_address",
                      "typeString": "address"
                    }
                  },
                  "value": null,
                  "visibility": "internal"
                }
              ],
              "src": "247:47:14"
            },
            "payable": false,
            "returnParameters": {
              "id": 2722,
              "nodeType": "ParameterList",
              "parameters": [],
              "src": "301:0:14"
            },
            "scope": 2764,
            "src": "220:82:14",
            "stateMutability": "nonpayable",
            "superFunction": null,
            "visibility": "public"
          },
          {
            "body": null,
            "documentation": null,
            "id": 2728,
            "implemented": false,
            "isConstructor": false,
            "isDeclaredConst": false,
            "modifiers": [],
            "name": "emitNewSmartToken",
            "nodeType": "FunctionDefinition",
            "parameters": {
              "id": 2726,
              "nodeType": "ParameterList",
              "parameters": [
                {
                  "constant": false,
                  "id": 2725,
                  "name": "token",
                  "nodeType": "VariableDeclaration",
                  "scope": 2728,
                  "src": "334:13:14",
                  "stateVariable": false,
                  "storageLocation": "default",
                  "typeDescriptions": {
                    "typeIdentifier": "t_address",
                    "typeString": "address"
                  },
                  "typeName": {
                    "id": 2724,
                    "name": "address",
                    "nodeType": "ElementaryTypeName",
                    "src": "334:7:14",
                    "typeDescriptions": {
                      "typeIdentifier": "t_address",
                      "typeString": "address"
                    }
                  },
                  "value": null,
                  "visibility": "internal"
                }
              ],
              "src": "333:15:14"
            },
            "payable": false,
            "returnParameters": {
              "id": 2727,
              "nodeType": "ParameterList",
              "parameters": [],
              "src": "355:0:14"
            },
            "scope": 2764,
            "src": "307:49:14",
            "stateMutability": "nonpayable",
            "superFunction": null,
            "visibility": "public"
          },
          {
            "body": null,
            "documentation": null,
            "id": 2733,
            "implemented": false,
            "isConstructor": false,
            "isDeclaredConst": false,
            "modifiers": [],
            "name": "emitIssuance",
            "nodeType": "FunctionDefinition",
            "parameters": {
              "id": 2731,
              "nodeType": "ParameterList",
              "parameters": [
                {
                  "constant": false,
                  "id": 2730,
                  "name": "amount",
                  "nodeType": "VariableDeclaration",
                  "scope": 2733,
                  "src": "383:14:14",
                  "stateVariable": false,
                  "storageLocation": "default",
                  "typeDescriptions": {
                    "typeIdentifier": "t_uint256",
                    "typeString": "uint256"
                  },
                  "typeName": {
                    "id": 2729,
                    "name": "uint256",
                    "nodeType": "ElementaryTypeName",
                    "src": "383:7:14",
                    "typeDescriptions": {
                      "typeIdentifier": "t_uint256",
                      "typeString": "uint256"
                    }
                  },
                  "value": null,
                  "visibility": "internal"
                }
              ],
              "src": "382:16:14"
            },
            "payable": false,
            "returnParameters": {
              "id": 2732,
              "nodeType": "ParameterList",
              "parameters": [],
              "src": "405:0:14"
            },
            "scope": 2764,
            "src": "361:45:14",
            "stateMutability": "nonpayable",
            "superFunction": null,
            "visibility": "public"
          },
          {
            "body": null,
            "documentation": null,
            "id": 2738,
            "implemented": false,
            "isConstructor": false,
            "isDeclaredConst": false,
            "modifiers": [],
            "name": "emitDestruction",
            "nodeType": "FunctionDefinition",
            "parameters": {
              "id": 2736,
              "nodeType": "ParameterList",
              "parameters": [
                {
                  "constant": false,
                  "id": 2735,
                  "name": "amount",
                  "nodeType": "VariableDeclaration",
                  "scope": 2738,
                  "src": "436:14:14",
                  "stateVariable": false,
                  "storageLocation": "default",
                  "typeDescriptions": {
                    "typeIdentifier": "t_uint256",
                    "typeString": "uint256"
                  },
                  "typeName": {
                    "id": 2734,
                    "name": "uint256",
                    "nodeType": "ElementaryTypeName",
                    "src": "436:7:14",
                    "typeDescriptions": {
                      "typeIdentifier": "t_uint256",
                      "typeString": "uint256"
                    }
                  },
                  "value": null,
                  "visibility": "internal"
                }
              ],
              "src": "435:16:14"
            },
            "payable": false,
            "returnParameters": {
              "id": 2737,
              "nodeType": "ParameterList",
              "parameters": [],
              "src": "458:0:14"
            },
            "scope": 2764,
            "src": "411:48:14",
            "stateMutability": "nonpayable",
            "superFunction": null,
            "visibility": "public"
          },
          {
            "body": null,
            "documentation": null,
            "id": 2747,
            "implemented": false,
            "isConstructor": false,
            "isDeclaredConst": false,
            "modifiers": [],
            "name": "emitTransfer",
            "nodeType": "FunctionDefinition",
            "parameters": {
              "id": 2745,
              "nodeType": "ParameterList",
              "parameters": [
                {
                  "constant": false,
                  "id": 2740,
                  "name": "from",
                  "nodeType": "VariableDeclaration",
                  "scope": 2747,
                  "src": "486:12:14",
                  "stateVariable": false,
                  "storageLocation": "default",
                  "typeDescriptions": {
                    "typeIdentifier": "t_address",
                    "typeString": "address"
                  },
                  "typeName": {
                    "id": 2739,
                    "name": "address",
                    "nodeType": "ElementaryTypeName",
                    "src": "486:7:14",
                    "typeDescriptions": {
                      "typeIdentifier": "t_address",
                      "typeString": "address"
                    }
                  },
                  "value": null,
                  "visibility": "internal"
                },
                {
                  "constant": false,
                  "id": 2742,
                  "name": "to",
                  "nodeType": "VariableDeclaration",
                  "scope": 2747,
                  "src": "500:10:14",
                  "stateVariable": false,
                  "storageLocation": "default",
                  "typeDescriptions": {
                    "typeIdentifier": "t_address",
                    "typeString": "address"
                  },
                  "typeName": {
                    "id": 2741,
                    "name": "address",
                    "nodeType": "ElementaryTypeName",
                    "src": "500:7:14",
                    "typeDescriptions": {
                      "typeIdentifier": "t_address",
                      "typeString": "address"
                    }
                  },
                  "value": null,
                  "visibility": "internal"
                },
                {
                  "constant": false,
                  "id": 2744,
                  "name": "value",
                  "nodeType": "VariableDeclaration",
                  "scope": 2747,
                  "src": "512:13:14",
                  "stateVariable": false,
                  "storageLocation": "default",
                  "typeDescriptions": {
                    "typeIdentifier": "t_uint256",
                    "typeString": "uint256"
                  },
                  "typeName": {
                    "id": 2743,
                    "name": "uint256",
                    "nodeType": "ElementaryTypeName",
                    "src": "512:7:14",
                    "typeDescriptions": {
                      "typeIdentifier": "t_uint256",
                      "typeString": "uint256"
                    }
                  },
                  "value": null,
                  "visibility": "internal"
                }
              ],
              "src": "485:41:14"
            },
            "payable": false,
            "returnParameters": {
              "id": 2746,
              "nodeType": "ParameterList",
              "parameters": [],
              "src": "533:0:14"
            },
            "scope": 2764,
            "src": "464:70:14",
            "stateMutability": "nonpayable",
            "superFunction": null,
            "visibility": "public"
          },
          {
            "body": null,
            "documentation": null,
            "id": 2756,
            "implemented": false,
            "isConstructor": false,
            "isDeclaredConst": false,
            "modifiers": [],
            "name": "emitApproval",
            "nodeType": "FunctionDefinition",
            "parameters": {
              "id": 2754,
              "nodeType": "ParameterList",
              "parameters": [
                {
                  "constant": false,
                  "id": 2749,
                  "name": "owner",
                  "nodeType": "VariableDeclaration",
                  "scope": 2756,
                  "src": "561:13:14",
                  "stateVariable": false,
                  "storageLocation": "default",
                  "typeDescriptions": {
                    "typeIdentifier": "t_address",
                    "typeString": "address"
                  },
                  "typeName": {
                    "id": 2748,
                    "name": "address",
                    "nodeType": "ElementaryTypeName",
                    "src": "561:7:14",
                    "typeDescriptions": {
                      "typeIdentifier": "t_address",
                      "typeString": "address"
                    }
                  },
                  "value": null,
                  "visibility": "internal"
                },
                {
                  "constant": false,
                  "id": 2751,
                  "name": "spender",
                  "nodeType": "VariableDeclaration",
                  "scope": 2756,
                  "src": "576:15:14",
                  "stateVariable": false,
                  "storageLocation": "default",
                  "typeDescriptions": {
                    "typeIdentifier": "t_address",
                    "typeString": "address"
                  },
                  "typeName": {
                    "id": 2750,
                    "name": "address",
                    "nodeType": "ElementaryTypeName",
                    "src": "576:7:14",
                    "typeDescriptions": {
                      "typeIdentifier": "t_address",
                      "typeString": "address"
                    }
                  },
                  "value": null,
                  "visibility": "internal"
                },
                {
                  "constant": false,
                  "id": 2753,
                  "name": "value",
                  "nodeType": "VariableDeclaration",
                  "scope": 2756,
                  "src": "593:13:14",
                  "stateVariable": false,
                  "storageLocation": "default",
                  "typeDescriptions": {
                    "typeIdentifier": "t_uint256",
                    "typeString": "uint256"
                  },
                  "typeName": {
                    "id": 2752,
                    "name": "uint256",
                    "nodeType": "ElementaryTypeName",
                    "src": "593:7:14",
                    "typeDescriptions": {
                      "typeIdentifier": "t_uint256",
                      "typeString": "uint256"
                    }
                  },
                  "value": null,
                  "visibility": "internal"
                }
              ],
              "src": "560:47:14"
            },
            "payable": false,
            "returnParameters": {
              "id": 2755,
              "nodeType": "ParameterList",
              "parameters": [],
              "src": "614:0:14"
            },
            "scope": 2764,
            "src": "539:76:14",
            "stateMutability": "nonpayable",
            "superFunction": null,
            "visibility": "public"
          },
          {
            "body": null,
            "documentation": null,
            "id": 2763,
            "implemented": false,
            "isConstructor": false,
            "isDeclaredConst": false,
            "modifiers": [],
            "name": "emitGenericLog",
            "nodeType": "FunctionDefinition",
            "parameters": {
              "id": 2761,
              "nodeType": "ParameterList",
              "parameters": [
                {
                  "constant": false,
                  "id": 2758,
                  "name": "messageType",
                  "nodeType": "VariableDeclaration",
                  "scope": 2763,
                  "src": "644:18:14",
                  "stateVariable": false,
                  "storageLocation": "default",
                  "typeDescriptions": {
                    "typeIdentifier": "t_string_memory_ptr",
                    "typeString": "string"
                  },
                  "typeName": {
                    "id": 2757,
                    "name": "string",
                    "nodeType": "ElementaryTypeName",
                    "src": "644:6:14",
                    "typeDescriptions": {
                      "typeIdentifier": "t_string_storage_ptr",
                      "typeString": "string"
                    }
                  },
                  "value": null,
                  "visibility": "internal"
                },
                {
                  "constant": false,
                  "id": 2760,
                  "name": "message",
                  "nodeType": "VariableDeclaration",
                  "scope": 2763,
                  "src": "664:14:14",
                  "stateVariable": false,
                  "storageLocation": "default",
                  "typeDescriptions": {
                    "typeIdentifier": "t_string_memory_ptr",
                    "typeString": "string"
                  },
                  "typeName": {
                    "id": 2759,
                    "name": "string",
                    "nodeType": "ElementaryTypeName",
                    "src": "664:6:14",
                    "typeDescriptions": {
                      "typeIdentifier": "t_string_storage_ptr",
                      "typeString": "string"
                    }
                  },
                  "value": null,
                  "visibility": "internal"
                }
              ],
              "src": "643:36:14"
            },
            "payable": false,
            "returnParameters": {
              "id": 2762,
              "nodeType": "ParameterList",
              "parameters": [],
              "src": "686:0:14"
            },
            "scope": 2764,
            "src": "620:67:14",
            "stateMutability": "nonpayable",
            "superFunction": null,
            "visibility": "public"
          }
        ],
        "scope": 2765,
        "src": "63:626:14"
      }
    ],
    "src": "0:689:14"
  },
  "legacyAST": {
    "absolutePath": "/Users/nickarellano/htdocs/native-tribe-contracts/contracts/interfaces/ILogger.sol",
    "exportedSymbols": {
      "ILogger": [
        2764
      ]
    },
    "id": 2765,
    "nodeType": "SourceUnit",
    "nodes": [
      {
        "id": 2702,
        "literals": [
          "solidity",
          "^",
          "0.4",
          ".24"
        ],
        "nodeType": "PragmaDirective",
        "src": "0:24:14"
      },
      {
        "baseContracts": [],
        "contractDependencies": [],
        "contractKind": "contract",
        "documentation": null,
        "fullyImplemented": false,
        "id": 2764,
        "linearizedBaseContracts": [
          2764
        ],
        "name": "ILogger",
        "nodeType": "ContractDefinition",
        "nodes": [
          {
            "body": null,
            "documentation": null,
            "id": 2707,
            "implemented": false,
            "isConstructor": false,
            "isDeclaredConst": false,
            "modifiers": [],
            "name": "addNewLoggerPermission",
            "nodeType": "FunctionDefinition",
            "parameters": {
              "id": 2705,
              "nodeType": "ParameterList",
              "parameters": [
                {
                  "constant": false,
                  "id": 2704,
                  "name": "addressToPermission",
                  "nodeType": "VariableDeclaration",
                  "scope": 2707,
                  "src": "118:27:14",
                  "stateVariable": false,
                  "storageLocation": "default",
                  "typeDescriptions": {
                    "typeIdentifier": "t_address",
                    "typeString": "address"
                  },
                  "typeName": {
                    "id": 2703,
                    "name": "address",
                    "nodeType": "ElementaryTypeName",
                    "src": "118:7:14",
                    "typeDescriptions": {
                      "typeIdentifier": "t_address",
                      "typeString": "address"
                    }
                  },
                  "value": null,
                  "visibility": "internal"
                }
              ],
              "src": "117:29:14"
            },
            "payable": false,
            "returnParameters": {
              "id": 2706,
              "nodeType": "ParameterList",
              "parameters": [],
              "src": "153:0:14"
            },
            "scope": 2764,
            "src": "86:68:14",
            "stateMutability": "nonpayable",
            "superFunction": null,
            "visibility": "public"
          },
          {
            "body": null,
            "documentation": null,
            "id": 2714,
            "implemented": false,
            "isConstructor": false,
            "isDeclaredConst": false,
            "modifiers": [],
            "name": "emitTaskCreated",
            "nodeType": "FunctionDefinition",
            "parameters": {
              "id": 2712,
              "nodeType": "ParameterList",
              "parameters": [
                {
                  "constant": false,
                  "id": 2709,
                  "name": "uuid",
                  "nodeType": "VariableDeclaration",
                  "scope": 2714,
                  "src": "184:9:14",
                  "stateVariable": false,
                  "storageLocation": "default",
                  "typeDescriptions": {
                    "typeIdentifier": "t_uint256",
                    "typeString": "uint256"
                  },
                  "typeName": {
                    "id": 2708,
                    "name": "uint",
                    "nodeType": "ElementaryTypeName",
                    "src": "184:4:14",
                    "typeDescriptions": {
                      "typeIdentifier": "t_uint256",
                      "typeString": "uint256"
                    }
                  },
                  "value": null,
                  "visibility": "internal"
                },
                {
                  "constant": false,
                  "id": 2711,
                  "name": "amount",
                  "nodeType": "VariableDeclaration",
                  "scope": 2714,
                  "src": "195:11:14",
                  "stateVariable": false,
                  "storageLocation": "default",
                  "typeDescriptions": {
                    "typeIdentifier": "t_uint256",
                    "typeString": "uint256"
                  },
                  "typeName": {
                    "id": 2710,
                    "name": "uint",
                    "nodeType": "ElementaryTypeName",
                    "src": "195:4:14",
                    "typeDescriptions": {
                      "typeIdentifier": "t_uint256",
                      "typeString": "uint256"
                    }
                  },
                  "value": null,
                  "visibility": "internal"
                }
              ],
              "src": "183:24:14"
            },
            "payable": false,
            "returnParameters": {
              "id": 2713,
              "nodeType": "ParameterList",
              "parameters": [],
              "src": "214:0:14"
            },
            "scope": 2764,
            "src": "159:56:14",
            "stateMutability": "nonpayable",
            "superFunction": null,
            "visibility": "public"
          },
          {
            "body": null,
            "documentation": null,
            "id": 2723,
            "implemented": false,
            "isConstructor": false,
            "isDeclaredConst": false,
            "modifiers": [],
            "name": "emitProjectCreated",
            "nodeType": "FunctionDefinition",
            "parameters": {
              "id": 2721,
              "nodeType": "ParameterList",
              "parameters": [
                {
                  "constant": false,
                  "id": 2716,
                  "name": "uuid",
                  "nodeType": "VariableDeclaration",
                  "scope": 2723,
                  "src": "248:9:14",
                  "stateVariable": false,
                  "storageLocation": "default",
                  "typeDescriptions": {
                    "typeIdentifier": "t_uint256",
                    "typeString": "uint256"
                  },
                  "typeName": {
                    "id": 2715,
                    "name": "uint",
                    "nodeType": "ElementaryTypeName",
                    "src": "248:4:14",
                    "typeDescriptions": {
                      "typeIdentifier": "t_uint256",
                      "typeString": "uint256"
                    }
                  },
                  "value": null,
                  "visibility": "internal"
                },
                {
                  "constant": false,
                  "id": 2718,
                  "name": "amount",
                  "nodeType": "VariableDeclaration",
                  "scope": 2723,
                  "src": "259:11:14",
                  "stateVariable": false,
                  "storageLocation": "default",
                  "typeDescriptions": {
                    "typeIdentifier": "t_uint256",
                    "typeString": "uint256"
                  },
                  "typeName": {
                    "id": 2717,
                    "name": "uint",
                    "nodeType": "ElementaryTypeName",
                    "src": "259:4:14",
                    "typeDescriptions": {
                      "typeIdentifier": "t_uint256",
                      "typeString": "uint256"
                    }
                  },
                  "value": null,
                  "visibility": "internal"
                },
                {
                  "constant": false,
                  "id": 2720,
                  "name": "rewardAddress",
                  "nodeType": "VariableDeclaration",
                  "scope": 2723,
                  "src": "272:21:14",
                  "stateVariable": false,
                  "storageLocation": "default",
                  "typeDescriptions": {
                    "typeIdentifier": "t_address",
                    "typeString": "address"
                  },
                  "typeName": {
                    "id": 2719,
                    "name": "address",
                    "nodeType": "ElementaryTypeName",
                    "src": "272:7:14",
                    "typeDescriptions": {
                      "typeIdentifier": "t_address",
                      "typeString": "address"
                    }
                  },
                  "value": null,
                  "visibility": "internal"
                }
              ],
              "src": "247:47:14"
            },
            "payable": false,
            "returnParameters": {
              "id": 2722,
              "nodeType": "ParameterList",
              "parameters": [],
              "src": "301:0:14"
            },
            "scope": 2764,
            "src": "220:82:14",
            "stateMutability": "nonpayable",
            "superFunction": null,
            "visibility": "public"
          },
          {
            "body": null,
            "documentation": null,
            "id": 2728,
            "implemented": false,
            "isConstructor": false,
            "isDeclaredConst": false,
            "modifiers": [],
            "name": "emitNewSmartToken",
            "nodeType": "FunctionDefinition",
            "parameters": {
              "id": 2726,
              "nodeType": "ParameterList",
              "parameters": [
                {
                  "constant": false,
                  "id": 2725,
                  "name": "token",
                  "nodeType": "VariableDeclaration",
                  "scope": 2728,
                  "src": "334:13:14",
                  "stateVariable": false,
                  "storageLocation": "default",
                  "typeDescriptions": {
                    "typeIdentifier": "t_address",
                    "typeString": "address"
                  },
                  "typeName": {
                    "id": 2724,
                    "name": "address",
                    "nodeType": "ElementaryTypeName",
                    "src": "334:7:14",
                    "typeDescriptions": {
                      "typeIdentifier": "t_address",
                      "typeString": "address"
                    }
                  },
                  "value": null,
                  "visibility": "internal"
                }
              ],
              "src": "333:15:14"
            },
            "payable": false,
            "returnParameters": {
              "id": 2727,
              "nodeType": "ParameterList",
              "parameters": [],
              "src": "355:0:14"
            },
            "scope": 2764,
            "src": "307:49:14",
            "stateMutability": "nonpayable",
            "superFunction": null,
            "visibility": "public"
          },
          {
            "body": null,
            "documentation": null,
            "id": 2733,
            "implemented": false,
            "isConstructor": false,
            "isDeclaredConst": false,
            "modifiers": [],
            "name": "emitIssuance",
            "nodeType": "FunctionDefinition",
            "parameters": {
              "id": 2731,
              "nodeType": "ParameterList",
              "parameters": [
                {
                  "constant": false,
                  "id": 2730,
                  "name": "amount",
                  "nodeType": "VariableDeclaration",
                  "scope": 2733,
                  "src": "383:14:14",
                  "stateVariable": false,
                  "storageLocation": "default",
                  "typeDescriptions": {
                    "typeIdentifier": "t_uint256",
                    "typeString": "uint256"
                  },
                  "typeName": {
                    "id": 2729,
                    "name": "uint256",
                    "nodeType": "ElementaryTypeName",
                    "src": "383:7:14",
                    "typeDescriptions": {
                      "typeIdentifier": "t_uint256",
                      "typeString": "uint256"
                    }
                  },
                  "value": null,
                  "visibility": "internal"
                }
              ],
              "src": "382:16:14"
            },
            "payable": false,
            "returnParameters": {
              "id": 2732,
              "nodeType": "ParameterList",
              "parameters": [],
              "src": "405:0:14"
            },
            "scope": 2764,
            "src": "361:45:14",
            "stateMutability": "nonpayable",
            "superFunction": null,
            "visibility": "public"
          },
          {
            "body": null,
            "documentation": null,
            "id": 2738,
            "implemented": false,
            "isConstructor": false,
            "isDeclaredConst": false,
            "modifiers": [],
            "name": "emitDestruction",
            "nodeType": "FunctionDefinition",
            "parameters": {
              "id": 2736,
              "nodeType": "ParameterList",
              "parameters": [
                {
                  "constant": false,
                  "id": 2735,
                  "name": "amount",
                  "nodeType": "VariableDeclaration",
                  "scope": 2738,
                  "src": "436:14:14",
                  "stateVariable": false,
                  "storageLocation": "default",
                  "typeDescriptions": {
                    "typeIdentifier": "t_uint256",
                    "typeString": "uint256"
                  },
                  "typeName": {
                    "id": 2734,
                    "name": "uint256",
                    "nodeType": "ElementaryTypeName",
                    "src": "436:7:14",
                    "typeDescriptions": {
                      "typeIdentifier": "t_uint256",
                      "typeString": "uint256"
                    }
                  },
                  "value": null,
                  "visibility": "internal"
                }
              ],
              "src": "435:16:14"
            },
            "payable": false,
            "returnParameters": {
              "id": 2737,
              "nodeType": "ParameterList",
              "parameters": [],
              "src": "458:0:14"
            },
            "scope": 2764,
            "src": "411:48:14",
            "stateMutability": "nonpayable",
            "superFunction": null,
            "visibility": "public"
          },
          {
            "body": null,
            "documentation": null,
            "id": 2747,
            "implemented": false,
            "isConstructor": false,
            "isDeclaredConst": false,
            "modifiers": [],
            "name": "emitTransfer",
            "nodeType": "FunctionDefinition",
            "parameters": {
              "id": 2745,
              "nodeType": "ParameterList",
              "parameters": [
                {
                  "constant": false,
                  "id": 2740,
                  "name": "from",
                  "nodeType": "VariableDeclaration",
                  "scope": 2747,
                  "src": "486:12:14",
                  "stateVariable": false,
                  "storageLocation": "default",
                  "typeDescriptions": {
                    "typeIdentifier": "t_address",
                    "typeString": "address"
                  },
                  "typeName": {
                    "id": 2739,
                    "name": "address",
                    "nodeType": "ElementaryTypeName",
                    "src": "486:7:14",
                    "typeDescriptions": {
                      "typeIdentifier": "t_address",
                      "typeString": "address"
                    }
                  },
                  "value": null,
                  "visibility": "internal"
                },
                {
                  "constant": false,
                  "id": 2742,
                  "name": "to",
                  "nodeType": "VariableDeclaration",
                  "scope": 2747,
                  "src": "500:10:14",
                  "stateVariable": false,
                  "storageLocation": "default",
                  "typeDescriptions": {
                    "typeIdentifier": "t_address",
                    "typeString": "address"
                  },
                  "typeName": {
                    "id": 2741,
                    "name": "address",
                    "nodeType": "ElementaryTypeName",
                    "src": "500:7:14",
                    "typeDescriptions": {
                      "typeIdentifier": "t_address",
                      "typeString": "address"
                    }
                  },
                  "value": null,
                  "visibility": "internal"
                },
                {
                  "constant": false,
                  "id": 2744,
                  "name": "value",
                  "nodeType": "VariableDeclaration",
                  "scope": 2747,
                  "src": "512:13:14",
                  "stateVariable": false,
                  "storageLocation": "default",
                  "typeDescriptions": {
                    "typeIdentifier": "t_uint256",
                    "typeString": "uint256"
                  },
                  "typeName": {
                    "id": 2743,
                    "name": "uint256",
                    "nodeType": "ElementaryTypeName",
                    "src": "512:7:14",
                    "typeDescriptions": {
                      "typeIdentifier": "t_uint256",
                      "typeString": "uint256"
                    }
                  },
                  "value": null,
                  "visibility": "internal"
                }
              ],
              "src": "485:41:14"
            },
            "payable": false,
            "returnParameters": {
              "id": 2746,
              "nodeType": "ParameterList",
              "parameters": [],
              "src": "533:0:14"
            },
            "scope": 2764,
            "src": "464:70:14",
            "stateMutability": "nonpayable",
            "superFunction": null,
            "visibility": "public"
          },
          {
            "body": null,
            "documentation": null,
            "id": 2756,
            "implemented": false,
            "isConstructor": false,
            "isDeclaredConst": false,
            "modifiers": [],
            "name": "emitApproval",
            "nodeType": "FunctionDefinition",
            "parameters": {
              "id": 2754,
              "nodeType": "ParameterList",
              "parameters": [
                {
                  "constant": false,
                  "id": 2749,
                  "name": "owner",
                  "nodeType": "VariableDeclaration",
                  "scope": 2756,
                  "src": "561:13:14",
                  "stateVariable": false,
                  "storageLocation": "default",
                  "typeDescriptions": {
                    "typeIdentifier": "t_address",
                    "typeString": "address"
                  },
                  "typeName": {
                    "id": 2748,
                    "name": "address",
                    "nodeType": "ElementaryTypeName",
                    "src": "561:7:14",
                    "typeDescriptions": {
                      "typeIdentifier": "t_address",
                      "typeString": "address"
                    }
                  },
                  "value": null,
                  "visibility": "internal"
                },
                {
                  "constant": false,
                  "id": 2751,
                  "name": "spender",
                  "nodeType": "VariableDeclaration",
                  "scope": 2756,
                  "src": "576:15:14",
                  "stateVariable": false,
                  "storageLocation": "default",
                  "typeDescriptions": {
                    "typeIdentifier": "t_address",
                    "typeString": "address"
                  },
                  "typeName": {
                    "id": 2750,
                    "name": "address",
                    "nodeType": "ElementaryTypeName",
                    "src": "576:7:14",
                    "typeDescriptions": {
                      "typeIdentifier": "t_address",
                      "typeString": "address"
                    }
                  },
                  "value": null,
                  "visibility": "internal"
                },
                {
                  "constant": false,
                  "id": 2753,
                  "name": "value",
                  "nodeType": "VariableDeclaration",
                  "scope": 2756,
                  "src": "593:13:14",
                  "stateVariable": false,
                  "storageLocation": "default",
                  "typeDescriptions": {
                    "typeIdentifier": "t_uint256",
                    "typeString": "uint256"
                  },
                  "typeName": {
                    "id": 2752,
                    "name": "uint256",
                    "nodeType": "ElementaryTypeName",
                    "src": "593:7:14",
                    "typeDescriptions": {
                      "typeIdentifier": "t_uint256",
                      "typeString": "uint256"
                    }
                  },
                  "value": null,
                  "visibility": "internal"
                }
              ],
              "src": "560:47:14"
            },
            "payable": false,
            "returnParameters": {
              "id": 2755,
              "nodeType": "ParameterList",
              "parameters": [],
              "src": "614:0:14"
            },
            "scope": 2764,
            "src": "539:76:14",
            "stateMutability": "nonpayable",
            "superFunction": null,
            "visibility": "public"
          },
          {
            "body": null,
            "documentation": null,
            "id": 2763,
            "implemented": false,
            "isConstructor": false,
            "isDeclaredConst": false,
            "modifiers": [],
            "name": "emitGenericLog",
            "nodeType": "FunctionDefinition",
            "parameters": {
              "id": 2761,
              "nodeType": "ParameterList",
              "parameters": [
                {
                  "constant": false,
                  "id": 2758,
                  "name": "messageType",
                  "nodeType": "VariableDeclaration",
                  "scope": 2763,
                  "src": "644:18:14",
                  "stateVariable": false,
                  "storageLocation": "default",
                  "typeDescriptions": {
                    "typeIdentifier": "t_string_memory_ptr",
                    "typeString": "string"
                  },
                  "typeName": {
                    "id": 2757,
                    "name": "string",
                    "nodeType": "ElementaryTypeName",
                    "src": "644:6:14",
                    "typeDescriptions": {
                      "typeIdentifier": "t_string_storage_ptr",
                      "typeString": "string"
                    }
                  },
                  "value": null,
                  "visibility": "internal"
                },
                {
                  "constant": false,
                  "id": 2760,
                  "name": "message",
                  "nodeType": "VariableDeclaration",
                  "scope": 2763,
                  "src": "664:14:14",
                  "stateVariable": false,
                  "storageLocation": "default",
                  "typeDescriptions": {
                    "typeIdentifier": "t_string_memory_ptr",
                    "typeString": "string"
                  },
                  "typeName": {
                    "id": 2759,
                    "name": "string",
                    "nodeType": "ElementaryTypeName",
                    "src": "664:6:14",
                    "typeDescriptions": {
                      "typeIdentifier": "t_string_storage_ptr",
                      "typeString": "string"
                    }
                  },
                  "value": null,
                  "visibility": "internal"
                }
              ],
              "src": "643:36:14"
            },
            "payable": false,
            "returnParameters": {
              "id": 2762,
              "nodeType": "ParameterList",
              "parameters": [],
              "src": "686:0:14"
            },
            "scope": 2764,
            "src": "620:67:14",
            "stateMutability": "nonpayable",
            "superFunction": null,
            "visibility": "public"
          }
        ],
        "scope": 2765,
        "src": "63:626:14"
      }
    ],
    "src": "0:689:14"
  },
  "compiler": {
    "name": "solc",
    "version": "0.4.24+commit.e67f0147.Emscripten.clang"
  },
  "networks": {},
  "schemaVersion": "2.0.1",
  "updatedAt": "2018-08-31T14:10:49.846Z"
}